02/07/17 16:12

Problem 1 (20 points):
Score += 20

Problem 2 (10 points):
NotImplementedError: Problem 2 Incomplete

Problem 3 (10 points):
NotImplementedError: Problem 3 Incomplete

Total score: 20/40 = 50.0%

--------------------------------------------------------------------------------

02/09/17 12:23

Problem 1 (20 points):
Score += 20

Problem 2 (10 points):
Score += 10

Problem 3 (10 points):
Score += 10

Total score: 40/40 = 100.0%

Excellent!

--------------------------------------------------------------------------------

